<?xml version="1.0" encoding="utf-8"?>
<!-- Generator: Adobe Illustrator 19.1.0, SVG Export Plug-In . SVG Version: 6.00 Build 0)  -->
<svg version="1.1" id="Layer_1" xmlns="http://www.w3.org/2000/svg" xmlns:xlink="http://www.w3.org/1999/xlink" x="0px" y="0px"
	 viewBox="-88 130.1 111 29.5" style="enable-background:new -88 130.1 111 29.5;" xml:space="preserve">
<style type="text/css">
	.st0{fill:#FFFFFF;}
	.st1{fill:none;}
	.st2{fill:url(#SVGID_1_);}
	.st3{fill:url(#SVGID_2_);}
	.st4{fill:url(#SVGID_3_);}
	.st5{fill:url(#SVGID_4_);}
	.st6{fill:url(#SVGID_5_);}
	.st7{fill:url(#SVGID_6_);}
	.st8{fill:url(#SVGID_7_);}
	.st9{fill:url(#SVGID_8_);}
	.st10{fill:url(#SVGID_9_);}
	.st11{fill:url(#SVGID_10_);}
	.st12{fill:url(#SVGID_11_);}
	.st13{fill:url(#SVGID_12_);}
</style>
<g>
	<rect x="-88" y="138.3" class="st0" width="42" height="0.6"/>
</g>
<g>
	<rect x="-18.4" y="153.5" class="st0" width="41.4" height="0.6"/>
</g>
<g>
	<path class="st0" d="M-71.7,141.4c0,0.1-0.1,0.1-0.5,0.1c-0.3,0-0.6,0.1-0.7,0.4c-0.1,0.2-0.3,0.7-0.5,1.5
		c-0.4,1.4-0.8,2.5-1.1,3.5c-0.5,1.6-1.1,3.2-1.5,4.7c0,0.1-0.1,0.2-0.1,0.2l-0.1-0.1c0-0.1-0.2-0.4-0.4-1c-0.3-0.8-0.5-1.6-0.8-2.3
		c-0.2-0.6-0.5-1.3-0.7-1.9c-0.6,1.7-1.3,3.4-1.9,5.3c0,0.1-0.1,0.2-0.1,0.2s-0.1-0.1-0.2-0.3c-0.3-0.7-1.4-3.8-3.2-9.1
		c-0.1-0.4-0.2-0.6-0.3-0.7c-0.1-0.1-0.2-0.1-0.5-0.1c-0.5,0-0.7-0.1-0.7-0.2s0.1-0.1,0.2-0.1c0.1,0,0.1,0,0.2,0
		c0.5,0,1,0.1,1.6,0.1c0.1,0,0.3,0,0.6,0s0.6,0,1.1,0h0.1c0.1,0,0.2,0.1,0.2,0.1c0,0.1-0.1,0.2-0.4,0.2c-0.6,0-0.9,0.1-0.9,0.2
		c0,0.3,0.9,2.9,2.6,7.8c0.6-1.7,1.1-2.9,1.4-3.7l-1.4-3.8c-0.1-0.2-0.2-0.3-0.3-0.4s-0.3-0.1-0.5-0.1c-0.3,0-0.4-0.1-0.4-0.1
		c0-0.1,0.1-0.2,0.3-0.2c0.1,0,0.3,0,0.5,0c0.2,0,0.6,0,1.1,0h1.1h1.5c0.3,0,0.7,0,1.2-0.1c0.1,0,0.1,0,0.2,0c0.2,0,0.3,0.1,0.3,0.1
		c0,0.1-0.1,0.1-0.2,0.1h-0.2c-0.4,0-0.7,0.1-0.9,0.2c-0.1,0.1-0.3,0.4-0.5,1.1c-0.1,0.3-0.3,0.7-0.6,1.4c-0.1,0.1-0.1,0.4-0.3,0.7
		c0.1,0.2,0.3,0.7,0.6,1.7c0.4,1.1,0.8,2.1,1.1,3c0.5-1.6,1.1-3.5,1.8-5.7c0.4-1.2,0.6-1.8,0.6-2s-0.2-0.3-0.5-0.3
		c-0.5,0-0.7-0.1-0.7-0.2s0.1-0.1,0.3-0.1c0.1,0,0.3,0,0.4,0c0.2,0,0.4,0,0.5,0h1.1c0.3,0,0.4,0,0.5,0
		C-71.7,141.4-71.7,141.4-71.7,141.4z M-77.5,141.6h-0.2h-0.2c-0.3,0-0.5,0.1-0.5,0.2c0,0,0.3,0.9,0.8,2.6c0.2-0.5,0.5-1.1,0.7-2
		c0-0.1,0.1-0.3,0.2-0.4v-0.1C-76.7,141.7-77,141.6-77.5,141.6z"/>
	<path class="st0" d="M-61.5,149.2c0,0,0,0.3,0,0.7c0,0.5,0,0.9,0,1.3v0.5c-0.9-0.1-2.7-0.1-5.4-0.1c-0.3,0-0.6,0-0.9,0
		s-0.5,0-0.6,0h-0.1c-0.2,0-0.3,0-0.3-0.1s0-0.1,0.1-0.1c0,0,0.2,0,0.5,0c0.2,0,0.4-0.1,0.4-0.2c0.1-0.1,0.1-0.3,0.1-0.7v-8.4
		c0-0.3,0-0.5-0.1-0.5c-0.1-0.1-0.3-0.1-0.7-0.1c-0.1,0-0.2,0-0.2-0.1s0.1-0.1,0.3-0.1h2.4c0.1,0,0.6,0,1.6,0s1.6,0,2,0
		c0.3,0,0.5,0,0.8-0.1c0,0.4,0.1,1,0.1,1.8l0.1,0.6c0,0.1,0,0.1,0,0.2s0,0.1-0.1,0.1s-0.2-0.1-0.2-0.4c-0.2-0.9-0.5-1.5-0.9-1.7
		c-0.3-0.2-1.1-0.3-2.3-0.3H-66v4.4h0.3c1,0,1.7-0.1,1.9-0.3c0.2-0.2,0.4-0.7,0.5-1.5c0-0.2,0.1-0.3,0.1-0.3c0.1,0,0.1,0.1,0.1,0.3
		s0,0.4,0,0.8s0,0.6,0,0.8c0,1.1,0,1.8,0.1,2.2c0,0.1,0,0.2,0,0.3c0,0.1-0.1,0.2-0.1,0.2c-0.1,0-0.1,0-0.1-0.1s-0.1-0.4-0.1-0.8
		c-0.1-0.6-0.3-0.9-0.7-1.1c-0.2-0.1-0.6-0.1-1.3-0.1h-0.6v5c2,0,3.2-0.1,3.6-0.1c0.6-0.1,0.9-0.8,1-1.9c0-0.3,0.1-0.4,0.2-0.4
		C-61.5,148.9-61.5,149-61.5,149.2z"/>
	<path class="st0" d="M-51.1,148.9c0,1-0.4,1.8-1.3,2.2c-0.4,0.2-1,0.4-1.8,0.5c-0.2,0-0.8,0-1.9,0h-1.7c-0.1,0-0.2,0-0.2-0.1
		s0.1-0.1,0.4-0.1s0.5,0,0.6-0.1s0.1-0.3,0.1-0.7v-8c0-0.4,0-0.7-0.1-0.7c-0.1-0.1-0.3-0.2-0.7-0.2c-0.3,0-0.4-0.1-0.4-0.1
		s0.1-0.1,0.3-0.1c0,0,0.1,0,0.2,0s0.2,0.1,0.3,0.1h2.8c1,0,1.8,0.2,2.2,0.5c0.6,0.4,0.9,1,0.9,1.8c0,0.7-0.2,1.2-0.7,1.7
		c-0.5,0.4-1.1,0.7-2,0.8v0.1c0.8,0.1,1.5,0.3,2,0.6C-51.4,147.2-51.1,147.9-51.1,148.9z M-53,143.8c0-0.9-0.2-1.6-0.6-1.9
		c-0.2-0.2-0.6-0.3-1.2-0.3c-0.1,0-0.4,0-0.7,0.1v4.3h0.1h0.8c0.5,0,0.9-0.2,1.2-0.6S-53,144.4-53,143.8z M-52.6,148.8
		c0-1.3-0.5-2-1.4-2.3c-0.3-0.1-0.8-0.1-1.6-0.1v4.4c0,0.3,0,0.5,0.1,0.5c0.1,0.1,0.3,0.1,0.8,0.1c0.6,0,1.1-0.2,1.5-0.7
		C-52.7,150.2-52.6,149.6-52.6,148.8z"/>
</g>
<g>
	<path class="st0" d="M-3.5,141.4c0,0.1-0.1,0.1-0.5,0.1c-0.3,0-0.6,0.1-0.7,0.4c-0.1,0.2-0.3,0.7-0.5,1.5c-0.4,1.4-0.8,2.5-1.1,3.5
		c-0.5,1.6-1.1,3.2-1.5,4.7c0,0.1-0.1,0.2-0.1,0.2l-0.1-0.1c0-0.1-0.2-0.4-0.4-1c-0.3-0.8-0.5-1.6-0.8-2.3c-0.2-0.6-0.5-1.3-0.7-1.9
		c-0.6,1.7-1.3,3.4-1.9,5.3c0,0.1-0.1,0.2-0.1,0.2s-0.1-0.1-0.2-0.3c-0.3-0.7-1.4-3.8-3.2-9.1c-0.1-0.4-0.2-0.6-0.3-0.7
		c-0.1-0.1-0.2-0.1-0.5-0.1c-0.4,0-0.7-0.1-0.7-0.2s0.1-0.1,0.2-0.1s0.1,0,0.2,0c0.5,0,1,0.1,1.6,0.1c0.1,0,0.3,0,0.6,0
		c0.3,0,0.6,0,1.1,0h0.1c0.1,0,0.2,0.1,0.2,0.1c0,0.1-0.1,0.2-0.4,0.2c-0.6,0-0.9,0.1-0.9,0.2c0,0.3,0.9,2.9,2.6,7.8
		c0.6-1.7,1.1-2.9,1.4-3.7l-1.4-3.8c-0.1-0.2-0.2-0.3-0.3-0.4c-0.1-0.1-0.3-0.1-0.5-0.1c-0.3,0-0.4-0.1-0.4-0.1
		c0-0.1,0.1-0.2,0.3-0.2c0.1,0,0.3,0,0.5,0s0.6,0,1.1,0h1.1h1.5c0.3,0,0.7,0,1.2-0.1c0.1,0,0.1,0,0.2,0c0.2,0,0.3,0.1,0.3,0.1
		c0,0.1-0.1,0.1-0.2,0.1h-0.2c-0.4,0-0.7,0.1-0.9,0.2c-0.1,0.1-0.3,0.4-0.5,1.1c-0.1,0.3-0.3,0.7-0.6,1.4c-0.1,0.1-0.1,0.4-0.3,0.7
		c0.1,0.2,0.3,0.7,0.6,1.7c0.4,1.1,0.8,2.1,1.1,3c0.5-1.6,1.1-3.5,1.8-5.7c0.4-1.2,0.6-1.8,0.6-2s-0.2-0.3-0.5-0.3
		c-0.5,0-0.7-0.1-0.7-0.2s0.1-0.1,0.3-0.1c0.1,0,0.3,0,0.4,0c0.2,0,0.4,0,0.5,0H-4c0.3,0,0.4,0,0.5,0
		C-3.5,141.4-3.5,141.4-3.5,141.4z M-9.3,141.6h-0.2h-0.2c-0.3,0-0.5,0.1-0.5,0.2c0,0,0.3,0.9,0.8,2.6c0.2-0.5,0.5-1.1,0.7-2
		c0-0.1,0.1-0.3,0.2-0.4v-0.1C-8.5,141.7-8.8,141.6-9.3,141.6z"/>
	<path class="st0" d="M6.7,149.2c0,0,0,0.3,0,0.7c0,0.5,0,0.9,0,1.3v0.5c-0.9-0.1-2.7-0.1-5.4-0.1c-0.3,0-0.6,0-0.9,0
		c-0.3,0-0.5,0-0.6,0h-0.3c-0.2,0-0.3,0-0.3-0.1s0-0.1,0.1-0.1c0,0,0.2,0,0.5,0c0.2,0,0.4-0.1,0.4-0.2c0.1-0.1,0.1-0.3,0.1-0.7v-8.4
		c0-0.3,0-0.5-0.1-0.5c-0.1-0.1-0.3-0.1-0.7-0.1c-0.1,0-0.2,0-0.2-0.1s0.1-0.1,0.3-0.1H2c0.1,0,0.6,0,1.6,0s1.6,0,2,0
		c0.3,0,0.5,0,0.8-0.1c0,0.4,0.1,1,0.1,1.8l0.1,0.6c0,0.1,0,0.1,0,0.2s0,0.1-0.1,0.1s-0.2-0.1-0.2-0.4c-0.2-0.9-0.5-1.5-0.9-1.7
		c-0.3-0.2-1.1-0.3-2.3-0.3H2v4.4h0.3c1,0,1.7-0.1,1.9-0.3c0.2-0.2,0.4-0.7,0.5-1.5c0-0.2,0.1-0.3,0.1-0.3c0.1,0,0.1,0.1,0.1,0.3
		s0,0.4,0,0.8s0,0.6,0,0.8c0,1.1,0,1.8,0.1,2.2c0,0.1,0,0.2,0,0.3c0,0.1-0.1,0.2-0.1,0.2c-0.1,0-0.1,0-0.1-0.1s-0.1-0.4-0.1-0.8
		c-0.1-0.6-0.3-0.9-0.7-1.1c-0.2-0.1-0.6-0.1-1.3-0.1H2.1v5c2,0,3.2-0.1,3.6-0.1C6.3,151.1,6.6,150.4,6.7,149.2
		c0-0.2,0.1-0.3,0.2-0.3C6.7,148.9,6.7,149,6.7,149.2z"/>
	<path class="st0" d="M19.2,146.5c0,1.8-0.6,3.1-1.7,4.1c-0.8,0.7-2,1.1-3.4,1.1c0,0-0.2,0-0.5,0s-0.7,0-1.3,0h-0.7h-1.1
		c-0.1,0-0.1,0-0.2,0c-0.2,0-0.3-0.1-0.3-0.1c0-0.1,0.1-0.1,0.4-0.1c0.4,0,0.6-0.1,0.7-0.2c0-0.1,0.1-0.3,0.1-0.6v-8
		c0-0.5,0-0.8-0.1-0.9s-0.3-0.1-0.7-0.1c-0.2,0-0.3-0.1-0.3-0.2s0.1-0.1,0.2-0.1c0,0,0.1,0,0.3,0s0.4,0,0.6,0h1.5
		c1.7,0,2.8,0.1,3.6,0.4s1.5,0.9,2,1.8C18.9,144.3,19.2,145.3,19.2,146.5z M17.7,146.4c0-1.7-0.3-2.9-0.9-3.7
		c-0.6-0.8-1.6-1.1-2.8-1.1c-0.6,0-1,0.1-1.1,0.2s-0.1,0.3-0.1,0.7v8c0,0.3,0,0.5,0,0.5c0,0.1,0.1,0.1,0.1,0.1
		c0.2,0.1,0.7,0.2,1.4,0.2c1,0,1.8-0.4,2.4-1.1C17.3,149.4,17.7,148.1,17.7,146.4z"/>
</g>
<g>
	<path class="st1" d="M-28.6,134.9c-1-0.4-2.1-0.6-3.3-0.6l0.1,2.1L-28.6,134.9z"/>
	<path class="st1" d="M-44,142.7c-1.9,2-3.4,4.8-3.1,7.5c0.4,2.8,2.6,3,4.5,2c-1.1-1.9-1.8-4.1-1.8-6.4
		C-44.4,144.7-44.3,143.7-44,142.7z"/>
	<path class="st1" d="M-41.8,151.7c0.2-0.1,0.4-0.3,0.5-0.4l-1.2-0.7C-42.2,151-42,151.4-41.8,151.7z"/>
	<path class="st1" d="M-32.4,134.2c-1.2,0.1-2.3,0.3-3.3,0.6l3.3,1.5V134.2z"/>
	<polygon class="st1" points="-30.4,138.6 -32.2,137.4 -34.1,138.6 	"/>
	<path class="st1" d="M-40.7,146.3l-1.7,3.5l1.7,1c0.3-0.4,0.9-1.3,1.5-2.3l0-0.2L-40.7,146.3z"/>
	<path class="st1" d="M-35.2,141.8c-0.4-1.6-1.4-2.2-2.5-2.3l-0.3,0.7l-0.4,1.9c0.8,0.3,1.5,0.9,1.8,1.7c0.5,1.6,0,3.7-1,5.5
		l0.6,0.7C-35.8,147.5-34.6,144.4-35.2,141.8z"/>
	<path class="st1" d="M-38.9,147.8c1-2,1.6-4.1,0-4.5l0,0.1c0.6,1.2-0.5,2.1-1.6,2.2l-0.1,0.1L-38.9,147.8z"/>
	<path class="st1" d="M-38.8,139.5c-0.6,0.1-1.3,0.3-1.9,0.6l-0.3,0.4l-0.4-0.1c-0.3,0.2-0.6,0.3-0.8,0.5l0.6,1.7
		c0.6-0.8,1.7-1,2.7-0.8l0.4-1.8L-38.8,139.5z"/>
	<path class="st1" d="M-43.4,145.3l2,0.1c-0.4-0.2-0.7-0.7-0.6-1.5c0-0.1,0-0.2,0.1-0.3l-0.8-1.9C-43.1,142.8-43.4,144-43.4,145.3z"
		/>
	<path class="st1" d="M-41.2,146.1l-2.2-0.1c0.1,1.2,0.3,2.3,0.6,3.4L-41.2,146.1z"/>
	<path class="st1" d="M-31.6,137l2.4,1.7l1.5,0.2c0.3-0.3,0.5-0.7,0.8-1l-1.1-2.6L-31.6,137z"/>
	<path class="st1" d="M-24.6,138.6c-0.2,0.3-0.3,0.7-0.5,1l2.9,1.4c0.1-0.1,0.1-0.1,0.2-0.2c-0.5-1-1.1-2-1.9-2.8L-24.6,138.6z"/>
	<path class="st1" d="M-25.5,140.6c0,0.1-0.1,0.2-0.1,0.3l0.2,1.4l1,1.7c0.6-0.8,1.2-1.6,1.8-2.4l-2.7-1.4
		C-25.4,140.3-25.5,140.5-25.5,140.6z"/>
	<path class="st1" d="M-26,142.9L-26,142.9c-0.5,1.8-0.9,3.7-1.5,5.5c0.5-0.8,1.1-1.5,1.6-2.3l-0.1-2.9V142.9z"/>
	<path class="st1" d="M-26.5,137.5c0.4-0.4,0.7-0.7,1-0.9c-0.6-0.5-1.3-0.9-1.9-1.2L-26.5,137.5z"/>
	<path class="st1" d="M-25.2,145.1c0.1-0.2,0.3-0.4,0.4-0.6l-0.5-0.8L-25.2,145.1z"/>
	<path class="st1" d="M-40.8,138.4c0.4-0.1,0.7-0.2,1-0.3l-0.3-0.5C-40.3,137.8-40.5,138.1-40.8,138.4z"/>
	<path class="st1" d="M-29.8,139.2h-4.7c1.9,1.5,2.7,4.3,1.6,7.6c0.4-0.6,2.4-4,4.4-6.8l-0.7-0.7L-29.8,139.2z"/>
	<path class="st1" d="M-39.6,137.2l0.5,0.8c0.5-0.1,0.9-0.1,1.4,0l0.9-2.5C-37.9,135.9-38.8,136.5-39.6,137.2z"/>
	<path class="st1" d="M-37.9,151.8c0.2-0.4,0.5-0.9,0.7-1.4l-0.8-0.6c-0.1,0.2-0.2,0.3-0.3,0.5l0.3,1.6
		C-38,151.9-37.9,151.8-37.9,151.8z"/>
	<path class="st1" d="M-36.3,135.3l-0.9,2.7c0.7,0.1,1.4,0.3,1.9,0.7l2.7-1.7L-36.3,135.3z"/>
	<polygon class="st1" points="-38.1,152.1 -38.1,152.1 -38.1,152.1 	"/>
	<path class="st1" d="M-33.3,155c0.1-0.1,0.1-0.3,0.2-0.4l-2.1-1.7h-0.2c-0.1,0.2-0.3,0.3-0.4,0.5c-0.2,0.3-0.7,0.8-1.2,1.4l0.7,1.2
		L-33.3,155z"/>
	<path class="st1" d="M-31.8,152.5c0,0,0-0.1,0.1-0.1c1.1-2.5,1.6-5.2,2.3-7.8c-1.8,2.6-3.5,5.3-5.5,7.7l0.5,0.4L-31.8,152.5z"/>
	<path class="st1" d="M-32.7,154c0.2-0.2,0.3-0.5,0.5-0.7l-1.2,0.1L-32.7,154z"/>
	<path class="st1" d="M-32.4,157.2v-1.1c-0.4,0.2-0.8,0.3-1,0c-0.1-0.1-0.1-0.3-0.1-0.4l-2.5,0.8C-34.9,156.9-33.7,157.2-32.4,157.2
		z"/>
	<path class="st1" d="M-28.7,156.8l-2.9-1.3c-0.1,0.1-0.2,0.1-0.2,0.2v1.6C-30.7,157.3-29.7,157.1-28.7,156.8z"/>
	<path class="st1" d="M-26.2,152.9l-2.9,0.2c-0.6,0.7-1.3,1.4-1.9,2l3,1.3L-26.2,152.9z"/>
	<path class="st1" d="M-21.4,149.3c0.3-1,0.5-2.2,0.5-3.3l-2,0.1L-21.4,149.3z"/>
	<path class="st1" d="M-27.3,156.1c1-0.5,2-1.2,2.8-2l-1.2-1.1L-27.3,156.1z"/>
	<path class="st1" d="M-37.4,155.2c-0.1,0.2-0.3,0.3-0.4,0.5c0.3,0.2,0.6,0.4,1,0.5L-37.4,155.2z"/>
	<polygon class="st1" points="-24.9,148.8 -25,148.9 -25.3,151.9 -21.8,149.9 -21.7,150.1 -23.3,146.6 	"/>
	<path class="st1" d="M-24,153.7c0.8-0.9,1.5-1.9,2-3l-3.3,1.8L-24,153.7z"/>
	<path class="st1" d="M-39.1,152.6l-0.8-0.5c-0.3,0.3-0.7,0.6-1.1,0.8c0.2,0.3,0.5,0.6,0.8,1L-39.1,152.6z"/>
	<path class="st1" d="M-20.9,145.3c0-0.9-0.1-1.7-0.4-2.6c-0.3,0.4-0.6,0.8-0.9,1.2l-0.5,1.5L-20.9,145.3z"/>
	<path class="st1" d="M-38.6,151.9l-0.2-1c-0.2,0.2-0.4,0.4-0.6,0.7l0.7,0.4L-38.6,151.9z"/>
	<path class="st1" d="M-25.7,149.5l-1.9,1.8c-0.3,0.4-0.6,0.7-0.9,1.1l2.6-0.2L-25.7,149.5z"/>
	<path class="st1" d="M-23.7,146.1L-23.7,146.1c-0.5,0.6-0.9,1.2-1.4,1.8l0,0.1L-23.7,146.1z"/>
	
		<linearGradient id="SVGID_1_" gradientUnits="userSpaceOnUse" x1="-44.3128" y1="141.9228" x2="-19.9974" y2="141.9228" gradientTransform="matrix(1 0 0 -1 0 292)">
		<stop  offset="0" style="stop-color:#009BE9"/>
		<stop  offset="0.5053" style="stop-color:#0099E7"/>
		<stop  offset="0.6873" style="stop-color:#0092E1"/>
		<stop  offset="0.817" style="stop-color:#0087D6"/>
		<stop  offset="0.9211" style="stop-color:#0076C6"/>
		<stop  offset="1" style="stop-color:#0063B5"/>
		<stop  offset="1" style="stop-color:#0061B5"/>
		<stop  offset="1" style="stop-color:#005AB3"/>
		<stop  offset="1" style="stop-color:#004EB1"/>
		<stop  offset="1" style="stop-color:#003CAE"/>
		<stop  offset="1" style="stop-color:#0026AA"/>
		<stop  offset="1" style="stop-color:#000AA6"/>
		<stop  offset="1" style="stop-color:#0000A4"/>
	</linearGradient>
	<path class="st2" d="M-20.9,145.3l-1.8,0.1l0.5-1.5c-0.5,0.7-1.1,1.5-1.6,2.2l0,0.1l-1.4,1.9l0-0.1c-0.2,0.2-0.3,0.5-0.5,0.7
		c-0.2,0.3-1,1.4-2,2.7l1.9-1.8l-0.3,2.7l-2.6,0.2c-0.2,0.2-0.4,0.5-0.6,0.7l2.9-0.2l-1.8,3.5l-3-1.3c-0.2,0.2-0.4,0.3-0.5,0.5
		l2.9,1.3c-1,0.3-2,0.5-3.1,0.5v-1.6c-0.2,0.2-0.4,0.3-0.6,0.4v1.1c-1.3,0-2.5-0.3-3.6-0.7l2.5-0.8c0-0.2,0.1-0.4,0.2-0.7l-3,1
		l-0.7-1.2c-0.1,0.1-0.3,0.3-0.4,0.4l0.6,1c-0.4-0.2-0.7-0.3-1-0.5c-0.3,0.3-0.5,0.5-0.8,0.8c1.9,1.2,4,1.9,6.4,1.9
		c6.7,0,12.2-5.6,12.2-12.5c0-1.4-0.2-2.7-0.6-3.9c-0.2,0.3-0.4,0.5-0.7,0.8C-21,143.6-20.9,144.4-20.9,145.3z M-27.3,156.1l1.6-3.1
		l1.2,1.1C-25.3,154.9-26.3,155.6-27.3,156.1z M-24,153.7l-1.3-1.2l3.3-1.8C-22.5,151.8-23.2,152.8-24,153.7z M-21.8,149.9l-3.5,2
		l0.3-3l0.1-0.1l1.6-2.2l1.6,3.5L-21.8,149.9z M-21.4,149.3l-1.5-3.2l2-0.1C-20.9,147.1-21.1,148.3-21.4,149.3z"/>
	
		<linearGradient id="SVGID_2_" gradientUnits="userSpaceOnUse" x1="-44.3128" y1="151.2518" x2="-19.9974" y2="151.2518" gradientTransform="matrix(1 0 0 -1 0 292)">
		<stop  offset="0" style="stop-color:#009BE9"/>
		<stop  offset="0.5053" style="stop-color:#0099E7"/>
		<stop  offset="0.6873" style="stop-color:#0092E1"/>
		<stop  offset="0.817" style="stop-color:#0087D6"/>
		<stop  offset="0.9211" style="stop-color:#0076C6"/>
		<stop  offset="1" style="stop-color:#0063B5"/>
		<stop  offset="1" style="stop-color:#0061B5"/>
		<stop  offset="1" style="stop-color:#005AB3"/>
		<stop  offset="1" style="stop-color:#004EB1"/>
		<stop  offset="1" style="stop-color:#003CAE"/>
		<stop  offset="1" style="stop-color:#0026AA"/>
		<stop  offset="1" style="stop-color:#000AA6"/>
		<stop  offset="1" style="stop-color:#0000A4"/>
	</linearGradient>
	<path class="st3" d="M-37.7,139.5c-0.3,0-0.7,0-1.1,0.1l0.3,0.6l-0.4,1.8c0.2,0,0.4,0.1,0.5,0.2l0.4-1.9L-37.7,139.5z"/>
	
		<linearGradient id="SVGID_3_" gradientUnits="userSpaceOnUse" x1="-44.3128" y1="142.1385" x2="-19.9974" y2="142.1385" gradientTransform="matrix(1 0 0 -1 0 292)">
		<stop  offset="0" style="stop-color:#009BE9"/>
		<stop  offset="0.5053" style="stop-color:#0099E7"/>
		<stop  offset="0.6873" style="stop-color:#0092E1"/>
		<stop  offset="0.817" style="stop-color:#0087D6"/>
		<stop  offset="0.9211" style="stop-color:#0076C6"/>
		<stop  offset="1" style="stop-color:#0063B5"/>
		<stop  offset="1" style="stop-color:#0061B5"/>
		<stop  offset="1" style="stop-color:#005AB3"/>
		<stop  offset="1" style="stop-color:#004EB1"/>
		<stop  offset="1" style="stop-color:#003CAE"/>
		<stop  offset="1" style="stop-color:#0026AA"/>
		<stop  offset="1" style="stop-color:#000AA6"/>
		<stop  offset="1" style="stop-color:#0000A4"/>
	</linearGradient>
	<path class="st4" d="M-37,150l-0.6-0.7c-0.1,0.2-0.2,0.4-0.4,0.6l0.8,0.6C-37.2,150.3-37.1,150.2-37,150z"/>
	
		<linearGradient id="SVGID_4_" gradientUnits="userSpaceOnUse" x1="-44.3128" y1="139.2655" x2="-19.9974" y2="139.2655" gradientTransform="matrix(1 0 0 -1 0 292)">
		<stop  offset="0" style="stop-color:#009BE9"/>
		<stop  offset="0.5053" style="stop-color:#0099E7"/>
		<stop  offset="0.6873" style="stop-color:#0092E1"/>
		<stop  offset="0.817" style="stop-color:#0087D6"/>
		<stop  offset="0.9211" style="stop-color:#0076C6"/>
		<stop  offset="1" style="stop-color:#0063B5"/>
		<stop  offset="1" style="stop-color:#0061B5"/>
		<stop  offset="1" style="stop-color:#005AB3"/>
		<stop  offset="1" style="stop-color:#004EB1"/>
		<stop  offset="1" style="stop-color:#003CAE"/>
		<stop  offset="1" style="stop-color:#0026AA"/>
		<stop  offset="1" style="stop-color:#000AA6"/>
		<stop  offset="1" style="stop-color:#0000A4"/>
	</linearGradient>
	<path class="st5" d="M-38.1,152.1L-38.1,152.1c0,0,0.1-0.1,0.1-0.1l-0.3-1.6c-0.1,0.2-0.3,0.4-0.5,0.6l0.2,1l-0.1,0.1l-0.7-0.4
		c-0.2,0.2-0.4,0.3-0.5,0.5l0.8,0.5l-1.1,1.3c-0.3-0.3-0.5-0.6-0.8-1c-0.3,0.2-0.6,0.4-0.9,0.5c0.5,0.6,1,1.2,1.5,1.7
		C-39.6,154-38.6,152.8-38.1,152.1L-38.1,152.1z"/>
	
		<linearGradient id="SVGID_5_" gradientUnits="userSpaceOnUse" x1="-44.3128" y1="155.3417" x2="-19.9974" y2="155.3417" gradientTransform="matrix(1 0 0 -1 0 292)">
		<stop  offset="0" style="stop-color:#009BE9"/>
		<stop  offset="0.5053" style="stop-color:#0099E7"/>
		<stop  offset="0.6873" style="stop-color:#0092E1"/>
		<stop  offset="0.817" style="stop-color:#0087D6"/>
		<stop  offset="0.9211" style="stop-color:#0076C6"/>
		<stop  offset="1" style="stop-color:#0063B5"/>
		<stop  offset="1" style="stop-color:#0061B5"/>
		<stop  offset="1" style="stop-color:#005AB3"/>
		<stop  offset="1" style="stop-color:#004EB1"/>
		<stop  offset="1" style="stop-color:#003CAE"/>
		<stop  offset="1" style="stop-color:#0026AA"/>
		<stop  offset="1" style="stop-color:#000AA6"/>
		<stop  offset="1" style="stop-color:#0000A4"/>
	</linearGradient>
	<path class="st6" d="M-40.8,138.4c0.2-0.3,0.5-0.5,0.8-0.8l0.3,0.5c0.2,0,0.4-0.1,0.6-0.1l-0.5-0.8c0.8-0.7,1.7-1.3,2.7-1.8
		l-0.9,2.5c0.2,0,0.4,0,0.6,0.1l0.9-2.7l3.7,1.6l-2.7,1.7c0.3,0.2,0.6,0.4,0.8,0.6h4.7l0.6,0.1l0.7,0.7c0.3-0.4,0.6-0.8,0.9-1.2
		l-1.5-0.2l-2.4-1.7l3.6-1.7l1.1,2.6c0.1-0.1,0.2-0.3,0.4-0.4l-0.9-2.1c0.7,0.3,1.3,0.7,1.9,1.2c0.4-0.3,0.8-0.4,1.1-0.4
		c-2.1-1.8-4.8-2.9-7.8-2.9c-4.4,0-8.2,2.4-10.4,5.9c0,0,0,0,0.1,0C-41.9,138.8-41.3,138.6-40.8,138.4z M-28.6,134.9l-3.2,1.5
		l-0.1-2.1C-30.7,134.3-29.6,134.5-28.6,134.9z M-30.4,138.6h-3.7l1.9-1.2L-30.4,138.6z M-32.4,134.2v2.1l-3.3-1.5
		C-34.7,134.5-33.6,134.3-32.4,134.2z"/>
	
		<linearGradient id="SVGID_6_" gradientUnits="userSpaceOnUse" x1="-44.3128" y1="148.6611" x2="-19.9974" y2="148.6611" gradientTransform="matrix(1 0 0 -1 0 292)">
		<stop  offset="0" style="stop-color:#009BE9"/>
		<stop  offset="0.5053" style="stop-color:#0099E7"/>
		<stop  offset="0.6873" style="stop-color:#0092E1"/>
		<stop  offset="0.817" style="stop-color:#0087D6"/>
		<stop  offset="0.9211" style="stop-color:#0076C6"/>
		<stop  offset="1" style="stop-color:#0063B5"/>
		<stop  offset="1" style="stop-color:#0061B5"/>
		<stop  offset="1" style="stop-color:#005AB3"/>
		<stop  offset="1" style="stop-color:#004EB1"/>
		<stop  offset="1" style="stop-color:#003CAE"/>
		<stop  offset="1" style="stop-color:#0026AA"/>
		<stop  offset="1" style="stop-color:#000AA6"/>
		<stop  offset="1" style="stop-color:#0000A4"/>
	</linearGradient>
	<path class="st7" d="M-39,143.3C-39,143.3-39,143.4-39,143.3L-39,143.3C-38.9,143.3-39,143.3-39,143.3z"/>
	
		<linearGradient id="SVGID_7_" gradientUnits="userSpaceOnUse" x1="-44.3128" y1="145.3714" x2="-19.9974" y2="145.3714" gradientTransform="matrix(1 0 0 -1 0 292)">
		<stop  offset="0" style="stop-color:#009BE9"/>
		<stop  offset="0.5053" style="stop-color:#0099E7"/>
		<stop  offset="0.6873" style="stop-color:#0092E1"/>
		<stop  offset="0.817" style="stop-color:#0087D6"/>
		<stop  offset="0.9211" style="stop-color:#0076C6"/>
		<stop  offset="1" style="stop-color:#0063B5"/>
		<stop  offset="1" style="stop-color:#0061B5"/>
		<stop  offset="1" style="stop-color:#005AB3"/>
		<stop  offset="1" style="stop-color:#004EB1"/>
		<stop  offset="1" style="stop-color:#003CAE"/>
		<stop  offset="1" style="stop-color:#0026AA"/>
		<stop  offset="1" style="stop-color:#000AA6"/>
		<stop  offset="1" style="stop-color:#0000A4"/>
	</linearGradient>
	<path class="st8" d="M-42.4,141.2c-0.5,0.4-1.1,0.9-1.6,1.5c-0.2,1-0.4,2-0.4,3.1c0,2.4,0.7,4.6,1.8,6.4c0.3-0.1,0.6-0.3,0.9-0.5
		c-0.2-0.4-0.4-0.7-0.6-1.1l1.2,0.7c0.1-0.1,0.2-0.2,0.3-0.3c0-0.1,0.1-0.1,0.2-0.2l-1.7-1l1.7-3.5l1.4,2l0,0.2
		c0.1-0.2,0.3-0.5,0.4-0.7l-1.7-2.1l0.1-0.1c-0.3,0-0.6,0-0.9-0.2l-2-0.1c0-1.3,0.3-2.5,0.7-3.6l0.8,1.9c0.1-0.3,0.2-0.6,0.4-0.9
		l-0.6-1.7C-42.3,141.1-42.3,141.1-42.4,141.2z M-41.2,146.1l-1.6,3.3c-0.3-1.1-0.5-2.2-0.6-3.4L-41.2,146.1z"/>
	
		<linearGradient id="SVGID_8_" gradientUnits="userSpaceOnUse" x1="-44.3128" y1="151.6245" x2="-19.9974" y2="151.6245" gradientTransform="matrix(1 0 0 -1 0 292)">
		<stop  offset="0" style="stop-color:#009BE9"/>
		<stop  offset="0.5053" style="stop-color:#0099E7"/>
		<stop  offset="0.6873" style="stop-color:#0092E1"/>
		<stop  offset="0.817" style="stop-color:#0087D6"/>
		<stop  offset="0.9211" style="stop-color:#0076C6"/>
		<stop  offset="1" style="stop-color:#0063B5"/>
		<stop  offset="1" style="stop-color:#0061B5"/>
		<stop  offset="1" style="stop-color:#005AB3"/>
		<stop  offset="1" style="stop-color:#004EB1"/>
		<stop  offset="1" style="stop-color:#003CAE"/>
		<stop  offset="1" style="stop-color:#0026AA"/>
		<stop  offset="1" style="stop-color:#000AA6"/>
		<stop  offset="1" style="stop-color:#0000A4"/>
	</linearGradient>
	<path class="st9" d="M-40.7,140.2c-0.2,0.1-0.5,0.2-0.7,0.4l0.4,0.1L-40.7,140.2z"/>
	
		<linearGradient id="SVGID_9_" gradientUnits="userSpaceOnUse" x1="-44.3128" y1="153.3434" x2="-19.9974" y2="153.3434" gradientTransform="matrix(1 0 0 -1 0 292)">
		<stop  offset="0" style="stop-color:#009BE9"/>
		<stop  offset="0.5053" style="stop-color:#0099E7"/>
		<stop  offset="0.6873" style="stop-color:#0092E1"/>
		<stop  offset="0.817" style="stop-color:#0087D6"/>
		<stop  offset="0.9211" style="stop-color:#0076C6"/>
		<stop  offset="1" style="stop-color:#0063B5"/>
		<stop  offset="1" style="stop-color:#0061B5"/>
		<stop  offset="1" style="stop-color:#005AB3"/>
		<stop  offset="1" style="stop-color:#004EB1"/>
		<stop  offset="1" style="stop-color:#003CAE"/>
		<stop  offset="1" style="stop-color:#0026AA"/>
		<stop  offset="1" style="stop-color:#000AA6"/>
		<stop  offset="1" style="stop-color:#0000A4"/>
	</linearGradient>
	<path class="st10" d="M-24.6,138.6l0.7-0.6c0.8,0.8,1.4,1.8,1.9,2.8c0.2-0.2,0.4-0.5,0.6-0.7c-0.7-1.3-1.6-2.5-2.7-3.5
		C-23.9,137-24.2,137.8-24.6,138.6z"/>
	
		<linearGradient id="SVGID_10_" gradientUnits="userSpaceOnUse" x1="-44.3128" y1="148.4854" x2="-19.9974" y2="148.4854" gradientTransform="matrix(1 0 0 -1 0 292)">
		<stop  offset="0" style="stop-color:#009BE9"/>
		<stop  offset="0.5053" style="stop-color:#0099E7"/>
		<stop  offset="0.6873" style="stop-color:#0092E1"/>
		<stop  offset="0.817" style="stop-color:#0087D6"/>
		<stop  offset="0.9211" style="stop-color:#0076C6"/>
		<stop  offset="1" style="stop-color:#0063B5"/>
		<stop  offset="1" style="stop-color:#0061B5"/>
		<stop  offset="1" style="stop-color:#005AB3"/>
		<stop  offset="1" style="stop-color:#004EB1"/>
		<stop  offset="1" style="stop-color:#003CAE"/>
		<stop  offset="1" style="stop-color:#0026AA"/>
		<stop  offset="1" style="stop-color:#000AA6"/>
		<stop  offset="1" style="stop-color:#0000A4"/>
	</linearGradient>
	<path class="st11" d="M-25.6,140.9c-0.2,0.6-0.3,1.3-0.5,1.9l0.1,0.1v0.3l0.1,2.9c0.2-0.3,0.5-0.7,0.7-1l0-1.4l0.5,0.8
		c0.1-0.2,0.2-0.3,0.3-0.5l-1-1.7L-25.6,140.9z"/>
	
		<linearGradient id="SVGID_11_" gradientUnits="userSpaceOnUse" x1="-44.3128" y1="151.4243" x2="-19.9974" y2="151.4243" gradientTransform="matrix(1 0 0 -1 0 292)">
		<stop  offset="0" style="stop-color:#009BE9"/>
		<stop  offset="0.5053" style="stop-color:#0099E7"/>
		<stop  offset="0.6873" style="stop-color:#0092E1"/>
		<stop  offset="0.817" style="stop-color:#0087D6"/>
		<stop  offset="0.9211" style="stop-color:#0076C6"/>
		<stop  offset="1" style="stop-color:#0063B5"/>
		<stop  offset="1" style="stop-color:#0061B5"/>
		<stop  offset="1" style="stop-color:#005AB3"/>
		<stop  offset="1" style="stop-color:#004EB1"/>
		<stop  offset="1" style="stop-color:#003CAE"/>
		<stop  offset="1" style="stop-color:#0026AA"/>
		<stop  offset="1" style="stop-color:#000AA6"/>
		<stop  offset="1" style="stop-color:#0000A4"/>
	</linearGradient>
	<path class="st12" d="M-25.3,140.2l2.7,1.4c0.1-0.2,0.3-0.4,0.4-0.6l-2.9-1.4C-25.2,139.8-25.3,140-25.3,140.2z"/>
	
		<linearGradient id="SVGID_12_" gradientUnits="userSpaceOnUse" x1="-44.3128" y1="138.5833" x2="-19.9974" y2="138.5833" gradientTransform="matrix(1 0 0 -1 0 292)">
		<stop  offset="0" style="stop-color:#009BE9"/>
		<stop  offset="0.5053" style="stop-color:#0099E7"/>
		<stop  offset="0.6873" style="stop-color:#0092E1"/>
		<stop  offset="0.817" style="stop-color:#0087D6"/>
		<stop  offset="0.9211" style="stop-color:#0076C6"/>
		<stop  offset="1" style="stop-color:#0063B5"/>
		<stop  offset="1" style="stop-color:#0061B5"/>
		<stop  offset="1" style="stop-color:#005AB3"/>
		<stop  offset="1" style="stop-color:#004EB1"/>
		<stop  offset="1" style="stop-color:#003CAE"/>
		<stop  offset="1" style="stop-color:#0026AA"/>
		<stop  offset="1" style="stop-color:#000AA6"/>
		<stop  offset="1" style="stop-color:#0000A4"/>
	</linearGradient>
	<path class="st13" d="M-33.1,154.6c0.1-0.2,0.2-0.4,0.3-0.6l-0.8-0.6l1.2-0.1c0.2-0.3,0.4-0.6,0.5-0.8l-2.6,0.2l-0.5-0.4
		c-0.2,0.2-0.3,0.4-0.5,0.6h0.2L-33.1,154.6z"/>
	<path class="st0" d="M-17.3,138.3c0.3-0.3,0.7-0.6,1-0.9c2.1-1.6,4.4-3.2,7-3.8c0.8-0.2,3.1,0,2.9-1.3c0-0.3,0-0.2,0-0.1
		c-0.4-1.3-5.2,0.5-5.8,0.4c-2.2,1-4.3,2.6-6.1,4.2c-1.1,1-2.1,2.1-3.1,3.3c-0.2,0.2-0.4,0.5-0.6,0.7c-0.1,0.1-0.1,0.1-0.2,0.2
		c-0.1,0.2-0.3,0.4-0.4,0.6c-0.6,0.8-1.2,1.6-1.8,2.4c-0.1,0.2-0.2,0.3-0.3,0.5c-0.2,0.2-0.3,0.4-0.4,0.6c-0.2,0.3-0.5,0.7-0.7,1
		c-0.5,0.8-1.1,1.5-1.6,2.3c0.6-1.8,1-3.7,1.4-5.6c0.2-0.6,0.3-1.3,0.5-1.9c0-0.1,0.1-0.2,0.1-0.3c0-0.1,0.1-0.3,0.2-0.4
		c0.1-0.2,0.2-0.4,0.3-0.6c0.2-0.3,0.3-0.6,0.5-1c0.4-0.8,0.7-1.6,0.5-2.1c0-0.1-0.1-0.2-0.1-0.2c-0.1,0-0.1-0.1-0.2-0.1
		c-0.3-0.1-0.7,0.1-1.1,0.4c-0.3,0.2-0.7,0.5-1,0.9c-0.1,0.1-0.2,0.3-0.4,0.4c-0.3,0.3-0.5,0.6-0.8,1c-0.3,0.4-0.6,0.8-0.9,1.2
		c-2,2.8-3.9,6.1-4.4,6.8c1.1-3.3,0.3-6.1-1.6-7.6c-0.3-0.2-0.5-0.4-0.8-0.6c-0.6-0.3-1.2-0.5-1.9-0.7c-0.2,0-0.4,0-0.6-0.1
		c-0.4,0-0.9,0-1.4,0c-0.2,0-0.4,0.1-0.6,0.1c-0.3,0.1-0.7,0.2-1,0.3c-0.6,0.2-1.2,0.5-1.7,0.8c0,0,0,0-0.1,0
		c-3.8,2.3-10.3,10.8-4.3,14.3H-88v0.6h42v-0.2c1.4,0.5,2.8,0.2,4.2-0.5c0.3-0.1,0.6-0.3,0.9-0.5c0.4-0.2,0.7-0.5,1.1-0.8
		c0.2-0.2,0.4-0.3,0.5-0.5c0.2-0.2,0.4-0.4,0.6-0.7c0.2-0.2,0.3-0.4,0.5-0.6c0.1-0.2,0.2-0.3,0.3-0.5c0.1-0.2,0.2-0.4,0.4-0.6
		c1-1.8,1.5-3.9,1-5.5c-0.2-0.8-1-1.4-1.8-1.7c-0.2-0.1-0.3-0.1-0.5-0.2c-1-0.2-2.1,0-2.7,0.8c-0.2,0.2-0.3,0.5-0.4,0.9
		c0,0.1-0.1,0.2-0.1,0.3c-0.1,0.8,0.2,1.3,0.6,1.5c0.3,0.1,0.6,0.2,0.9,0.2c1.1-0.1,2.2-1,1.6-2.2c0,0,0-0.1,0-0.1c0,0,0.1,0,0.1,0
		c1.7,0.4,1,2.5,0,4.5c-0.1,0.2-0.3,0.5-0.4,0.7c-0.6,1-1.1,1.8-1.5,2.3c-0.1,0.1-0.1,0.2-0.2,0.2c-0.1,0.1-0.2,0.2-0.3,0.3
		c-0.2,0.1-0.4,0.3-0.5,0.4c-0.3,0.2-0.6,0.4-0.9,0.5c-1.9,0.9-4.1,0.7-4.5-2c-0.3-2.7,1.2-5.4,3.1-7.5c0.5-0.6,1.1-1.1,1.6-1.5
		c0.1-0.1,0.1-0.1,0.2-0.2c0.2-0.2,0.5-0.4,0.8-0.5c0.2-0.1,0.4-0.2,0.7-0.4c0.6-0.3,1.3-0.5,1.9-0.6c0.4-0.1,0.7-0.1,1.1-0.1
		c1.2,0.1,2.2,0.7,2.5,2.3c0.6,2.6-0.6,5.7-1.8,8.2c-0.1,0.1-0.1,0.3-0.2,0.4c-0.2,0.5-0.5,0.9-0.7,1.4c0,0-0.1,0.1-0.1,0.2
		c0,0-0.1,0.1-0.1,0.1c0,0,0,0,0,0c-0.5,0.7-1.5,1.9-2.2,3c-0.6,1-0.9,1.9-0.1,2.2c0.5,0.2,1.1-0.3,1.8-0.9c0.3-0.2,0.5-0.5,0.8-0.8
		c0.2-0.2,0.3-0.3,0.4-0.5c0.1-0.1,0.3-0.3,0.4-0.4c0.5-0.6,0.9-1.1,1.2-1.4c0.1-0.2,0.3-0.3,0.4-0.5c0.2-0.2,0.3-0.4,0.5-0.6
		c2-2.4,3.7-5.1,5.5-7.7c-0.7,2.6-1.2,5.3-2.3,7.8c0,0,0,0.1-0.1,0.1c-0.1,0.2-0.3,0.5-0.5,0.8c-0.1,0.2-0.3,0.4-0.5,0.7
		c-0.1,0.2-0.2,0.4-0.3,0.6c-0.1,0.1-0.1,0.3-0.2,0.4c-0.1,0.3-0.2,0.5-0.2,0.7c0,0.2,0,0.3,0.1,0.4c0.2,0.3,0.6,0.2,1,0
		c0.2-0.1,0.4-0.2,0.6-0.4c0.1-0.1,0.2-0.1,0.2-0.2c0.2-0.1,0.3-0.3,0.5-0.5c0.6-0.6,1.2-1.3,1.9-2c0.2-0.2,0.4-0.5,0.6-0.7
		c0.3-0.4,0.6-0.7,0.9-1.1c1-1.3,1.8-2.4,2-2.7c0.2-0.2,0.3-0.5,0.5-0.7c0.5-0.6,0.9-1.3,1.4-1.9c0.5-0.7,1.1-1.5,1.6-2.2
		c0.3-0.4,0.6-0.8,0.9-1.2c0.2-0.3,0.4-0.5,0.7-0.8c0.8-1,1.7-2,2.7-3h41v-0.6H-17.3z"/>
</g>
</svg>
