<?xml version="1.0" encoding="utf-8"?>
<!-- Generator: Adobe Illustrator 18.1.1, SVG Export Plug-In . SVG Version: 6.00 Build 0)  -->
<svg version="1.1" id="Layer_1" xmlns="http://www.w3.org/2000/svg" xmlns:xlink="http://www.w3.org/1999/xlink" x="0px" y="0px"
	 viewBox="0 0 39.6 29.9" enable-background="new 0 0 39.6 29.9" xml:space="preserve">
<path fill-rule="evenodd" clip-rule="evenodd" fill="none" stroke="#EDEDED" stroke-miterlimit="10" d="M19.8,29.2l15.7-12.5
	c4.1-3.3,4.9-9.8,1.2-13.5l0,0c-3.2-3.2-8-3.8-11.6-1l-5.3,4.3l-5.3-4.3c-3.5-2.8-8.4-2.2-11.6,1l0,0C-0.8,7,0,13.5,4.1,16.8
	L19.8,29.2L19.8,29.2L19.8,29.2z"/>
</svg>
